<?xml version="1.0" encoding="UTF-8"?>
<svg width="70px" height="70px" viewBox="0 0 70 70" version="1.1" xmlns="http://www.w3.org/2000/svg" xmlns:xlink="http://www.w3.org/1999/xlink">
    <!-- Generator: Sketch 48.2 (47327) - http://www.bohemiancoding.com/sketch -->
    <title>Github-color</title>
    <desc>Created with Sketch.</desc>
    <defs></defs>
    <g id="01_about_sp" stroke="none" stroke-width="1" fill="none" fill-rule="evenodd" transform="translate(-271.000000, -691.000000)">
        <g id="tools__block" transform="translate(35.000000, 619.000000)" fill="#3E75C3">
            <g id="Group-3" transform="translate(0.000000, 72.000000)">
                <path d="M270.997813,0 C251.67125,0 236,15.859909 236,35.4285082 C236,51.0780736 246.0275,64.3562914 259.937812,69.0414188 C261.687813,69.3668979 262.326563,68.273111 262.326563,67.3343142 C262.326563,66.4929398 262.295937,64.2655115 262.278437,61.3096301 C252.541875,63.4507068 250.487812,56.5602926 250.487812,56.5602926 C248.8975,52.4685556 246.602812,51.3791971 246.602812,51.3791971 C243.424375,49.1805527 246.843437,49.2248356 246.843437,49.2248356 C250.354375,49.4750338 252.202812,52.875958 252.202812,52.875958 C255.326563,58.2895385 260.395,56.7263533 262.39,55.8185545 C262.707188,53.5291303 263.612812,51.9681592 264.6125,51.0825018 C256.840312,50.1879879 248.67,47.1501832 248.67,33.5752702 C248.67,29.7071617 250.032812,26.5453649 252.272812,24.0677385 C251.911875,23.1710104 250.710938,19.5708133 252.614062,14.6930554 C252.614062,14.6930554 255.554062,13.7409738 262.239062,18.3242506 C265.0325,17.5382297 268.025,17.1463263 271.002187,17.1308273 C273.975,17.1463263 276.969687,17.5382297 279.765312,18.3242506 C286.445938,13.7409738 289.379375,14.6930554 289.379375,14.6930554 C291.289062,19.5708133 290.088125,23.1710104 289.727188,24.0677385 C291.971563,26.5453649 293.325625,29.7071617 293.325625,33.5752702 C293.325625,47.1833954 285.142187,50.1791314 277.345937,51.0559321 C278.601562,52.149719 279.721563,54.3107229 279.721563,57.616439 C279.721563,62.3524916 279.677812,66.171889 279.677812,67.3343142 C279.677812,68.2819676 280.307813,69.384611 282.084063,69.0369905 C295.98125,64.3430065 306,51.0736453 306,35.4285082 C306,15.859909 290.32875,0 270.997813,0" id="Github"></path>
            </g>
        </g>
    </g>
</svg>