<?xml version="1.0" encoding="UTF-8"?>
<svg width="79px" height="79px" viewBox="0 0 79 79" version="1.1" xmlns="http://www.w3.org/2000/svg" xmlns:xlink="http://www.w3.org/1999/xlink">
    <!-- Generator: Sketch 48.2 (47327) - http://www.bohemiancoding.com/sketch -->
    <title>Vimlogo</title>
    <desc>Created with Sketch.</desc>
    <defs></defs>
    <g id="01_about_pc" stroke="none" stroke-width="1" fill="none" fill-rule="evenodd" transform="translate(-362.000000, -699.000000)">
        <g id="tools__block" transform="translate(172.000000, 535.000000)" stroke="#000000">
            <g id="Vimlogo" transform="translate(191.000000, 165.000000)">
                <polygon id="path2836" stroke-width="0.5" fill="#019833" fill-rule="nonzero" points="38.7688812 3.2432381 3.50233289 38.4890122 38.6219388 73.5879295 73.8884848 38.3421554"></polygon>
                <polygon id="path2838" stroke-width="0.5" fill="#66FE98" fill-rule="nonzero" points="38.6219388 3.39009706 38.6219388 0.306092156 0.269568169 38.6358691 3.50233289 38.6358691 38.6219388 3.39009706"></polygon>
                <polygon id="path2840" stroke-width="0.5" fill="#45FE02" fill-rule="nonzero" points="38.5337721 3.39009706 38.5337721 0.306092156 76.8861409 38.6358691 73.6533758 38.6358691 38.5337721 3.39009706"></polygon>
                <polygon id="path2842" stroke-width="0.5" fill="#017D17" fill-rule="nonzero" points="38.6219388 73.7935287 38.6219388 76.8775336 0.269568169 38.5477567 3.50233289 38.5477567"></polygon>
                <polygon id="path3650" stroke-width="4.11845101" points="7.38457333 4.19874754 32.1139809 4.19874754 33.620603 5.70447972 33.620603 10.3255327 32.4256947 11.7793439 29.7241622 11.7793439 29.7241622 34.7288395 52.998897 11.7793439 49.15441 11.7793439 47.8036426 10.3255327 47.8036426 5.44487087 49.0505046 4.30258943 74.091626 4.30258943 75.3384858 5.54871483 75.3384858 10.1178447 18.7102281 68.1665601 12.2681139 68.1665601 10.4034158 67.0906112 10.4034158 11.571658 7.28067025 11.571658 6.13771584 10.4293766 6.13771584 5.54871483"></polygon>
                <polygon id="path2844" stroke-width="0.5" fill="#005D04" fill-rule="nonzero" points="38.5337721 73.7935287 38.5337721 76.8775336 76.8861409 38.5477567 73.6533758 38.5477567 38.5337721 73.7935287"></polygon>
                <polygon id="path2846" stroke-width="1.23553524" points="38.5184557 0.0217920011 0.0218344349 38.4957362 38.3580548 76.8093756 76.8546774 38.3354293"></polygon>
                <polygon id="path3640" stroke-width="0.5" fill="#FEFEFE" fill-rule="nonzero" points="32.3768174 6.54752936 33.7727854 5.81324288 32.3400818 4.38138361 7.39634761 4.38138361 6.12895417 5.64802707 6.12895417 10.4392502 7.53410603 11.8435732 8.20453948 10.4392502 7.32287646 9.55810479 7.32287646 6.18038405 7.98412372 5.59295652 31.7890436 5.59295652"></polygon>
                <polygon id="path3632" stroke-width="0.5" points="50.0119301 5.44506413 49.1311848 6.32529061 49.1311848 9.55707103 49.9026405 10.3280723 53.9784983 10.3280723 53.9784983 13.4506276 27.0161207 40.7633483 27.0161207 10.3666224 31.4969927 10.3666224 32.4163108 9.44784584 32.4163108 6.17751536 31.5677095 5.52216426 7.98687953 5.52216426 7.21542381 6.29316556 7.21542381 9.63417116 7.99973713 10.4180225 12.1013101 10.4180225 12.1013101 66.3927163 12.8727658 67.1637176 17.5336441 67.1637176 74.0363471 8.89529492 74.0363471 6.32529061 73.1556018 5.44506413"></polygon>
                <polygon id="path3646" stroke-width="0.5" fill="#FEFEFE" fill-rule="nonzero" points="12.0603032 10.3255327 12.0603032 66.4012129 12.7876384 67.2319645 12.2172601 68.3183756 10.6056327 66.7127447 10.6056327 11.7793439"></polygon>
                <polygon id="path3644" stroke-width="0.5" fill="#808080" fill-rule="nonzero" points="8.03046542 10.3255327 7.61484397 11.675502 10.6280926 11.675502 12.2905738 10.3255327"></polygon>
                <path d="M49.4223177,11.8417394 L50.083565,10.4833096 L49.1284285,9.60216413 L49.1284285,6.59158871 L50.2305096,5.49015483 L73.2272376,5.49015483 L74.1089006,6.66501611 L75.357924,5.78387067 L74.072165,4.49886828 L49.3488443,4.49886828 L48.118191,5.72880012 L48.118191,10.5567349 L49.394766,11.7591325 L49.4223177,11.8417394 Z M29.4149817,34.9414901 L27.0133658,40.7653012 L54.1245243,13.5966846 L54.1245243,10.3658228 L29.4149817,34.9414901 Z" id="path3638" stroke-width="0.5" fill="#FEFEFE" fill-rule="nonzero"></path>
                <polygon id="path3642" stroke-width="0.5" fill="#808080" fill-rule="nonzero" points="32.3217871 6.37946647 33.5166976 5.60063784 33.5166976 10.3255327 32.1399555 11.7014635 29.4643999 11.7014635 29.4643999 34.9884463 27.0226296 40.7517827 27.0226296 10.3255327 31.4905487 10.3255327 32.3217871 9.65054797"></polygon>
                <polygon id="path3622" stroke-width="0.5" fill="#CCCCCC" fill-rule="nonzero" points="50.0119301 5.44506413 49.1311848 6.32529061 49.1311848 9.55707103 49.9026405 10.3280723 53.9784983 10.3280723 53.9784983 13.4506276 27.0161207 40.7633483 27.0161207 10.3666224 31.4969927 10.3666224 32.4163108 9.44784584 32.4163108 6.17751536 31.5677095 5.52216426 7.98687953 5.52216426 7.21542381 6.29316556 7.21542381 9.63417116 7.99973713 10.4180225 12.1013101 10.4180225 12.1013101 66.3927163 12.8727658 67.1637176 17.5336441 67.1637176 74.0363471 8.89529492 74.0363471 6.32529061 73.1556018 5.44506413"></polygon>
                <polygon id="path3636" stroke-width="0.5" fill="#808080" fill-rule="nonzero" points="74.1089006 6.40067248 75.36381 5.67657665 75.36381 10.2189639 18.4457757 68.3461543 12.402878 68.3461543 12.9802172 67.1996333 17.6089527 67.1996333 74.0354294 8.97067933"></polygon>
                <path d="M54.0119714,10.403413 L52.739137,11.7274229 L49.4141723,11.7274229 L50.1934613,10.403413 C50.2194382,10.403413 54.0119714,10.403413 54.0119714,10.403413 Z" id="path3652" stroke-width="0.5" fill="#808080" fill-rule="nonzero"></path>
                <g id="g3673" transform="translate(30.815485, 42.969990)" fill="#CCCCCC" fill-rule="nonzero">
                    <path d="M9.62391015,0.205600345 C9.58098462,0.214554898 9.54111498,0.234477978 9.50819179,0.263425442 L8.41529618,1.20147701 C8.38261845,1.23111771 8.35824354,1.26876583 8.34457941,1.3107022 L7.2516838,4.36900732 C7.21875718,4.46063466 7.24124365,4.56301267 7.30954298,4.63243277 L8.14528668,5.46768417 C8.19359545,5.51407579 8.2583065,5.53948302 8.32529302,5.53835928 L11.7004118,5.53835928 C11.7673983,5.53948302 11.8321094,5.51407579 11.8804181,5.46768417 L12.7611634,4.58103268 C12.7914991,4.55065047 12.8136196,4.51306793 12.8254514,4.4718075 L13.7640559,1.2528771 C13.7900871,1.16388722 13.7654332,1.06779349 13.6997679,1.00230168 L12.9733138,0.276275463 C12.925005,0.229883835 12.8602939,0.20447661 12.7933074,0.205600345 L9.67534053,0.205600345 C9.65824135,0.203858914 9.64100934,0.203858914 9.62391015,0.205600345 Z M3.43940677,8.8279648 C3.34483018,8.84824169 3.27002509,8.92051068 3.24654284,9.01429011 L2.82867099,10.6719429 C2.80986043,10.7473489 2.82669637,10.8272117 2.8743495,10.8886229 C2.92200263,10.9500342 2.99520736,10.9862081 3.0729653,10.9867684 L5.05946379,10.9867684 L0.135004752,25.038267 C0.10920014,25.115165 0.121769919,25.1997604 0.168820014,25.2658459 C0.215870108,25.3319315 0.291719488,25.3715276 0.372870266,25.3723675 L7.5409797,25.3723675 C7.6515393,25.3739364 7.75037807,25.3037502 7.78527401,25.1988922 L8.25457624,23.6890147 C8.27819814,23.61186 8.26365977,23.5280751 8.21542316,23.4633746 C8.16718655,23.3986742 8.09101329,23.3607862 8.01028193,23.3613392 L6.39022491,23.3613392 L11.2632536,9.16206536 C11.2890582,9.08516734 11.2764884,9.00057189 11.2294383,8.93448638 C11.1823882,8.86840088 11.1065388,8.82880477 11.025388,8.8279648 L3.49083715,8.8279648 C3.47373796,8.82622337 3.45650595,8.82622337 3.43940677,8.8279648 Z M26.248781,8.87936488 C26.1936709,8.89075573 26.1439157,8.92013917 26.1073474,8.96289002 L24.6158664,10.6462428 L22.24364,10.6462428 L20.6621558,9.0078651 C20.6149003,8.9591186 20.5500595,8.93134606 20.4821495,8.93076497 L14.8183787,8.93076497 C14.7118593,8.93101012 14.6168407,8.99774057 14.5805132,9.09781525 L14.0597806,10.6526679 C14.033976,10.7295659 14.0465457,10.8141613 14.0935958,10.8802468 C14.1406459,10.9463323 14.2164953,10.9859284 14.2976461,10.9867684 L15.8148423,10.9867684 L11.0961048,24.8840667 C11.0703002,24.9609647 11.08287,25.0455602 11.1299201,25.1116457 C11.1769702,25.1777312 11.2528196,25.2173273 11.3339703,25.2181673 L17.3641826,25.2181673 C17.470702,25.2179221 17.5657205,25.1511917 17.6020481,25.051117 L18.0649215,23.6954397 C18.0907261,23.6185417 18.0781564,23.5339463 18.0311063,23.4678607 C17.9840562,23.4017752 17.9082068,23.3621791 17.827056,23.3613392 L16.7727332,23.3613392 L19.7814105,13.8972983 L25.2266022,13.8972983 L21.7936242,24.8904917 C21.7700023,24.9676464 21.7845407,25.0514313 21.8327773,25.1161318 C21.8810139,25.1808323 21.9571871,25.2187202 22.0379185,25.2181673 L27.8559804,25.2181673 C27.9569608,25.2173911 28.0478617,25.1568262 28.0874171,25.063967 L28.6081497,23.8175149 C28.6388566,23.7401556 28.6296152,23.6526606 28.5834236,23.5834139 C28.5372319,23.5141672 28.459974,23.4719898 28.376713,23.4705643 L27.3223902,23.4705643 L30.3824979,13.8458982 L35.5641089,13.8458982 L32.0797005,24.8904917 C32.0560786,24.9676464 32.070617,25.0514313 32.1188536,25.1161318 C32.1670902,25.1808323 32.2432635,25.2187202 32.3239948,25.2181673 L38.7142197,25.2181673 C38.8191128,25.2189297 38.9136554,25.1550872 38.9520852,25.057542 L39.4728179,23.7018647 C39.5012229,23.6241871 39.4899297,23.5375452 39.4425609,23.4697326 C39.3951922,23.40192 39.3177035,23.3614628 39.2349523,23.3613392 L37.9684792,23.3613392 L41.819329,10.8646932 C41.8450676,10.7859262 41.8306646,10.6995594 41.7807562,10.6333928 L40.5849999,9.02714013 C40.5354603,8.9644023 40.459219,8.92868527 40.3792783,8.93076497 L35.8084032,8.93076497 C35.7382643,8.92959533 35.6707723,8.95750659 35.621968,9.0078651 L34.1819174,10.5884177 L31.6618287,10.5884177 L30.1703476,8.95646501 C30.1215433,8.9061065 30.0540513,8.87819524 29.9839125,8.87936488 L26.3002114,8.87936488 C26.2831122,8.87762345 26.2658802,8.87762345 26.248781,8.87936488 Z" id="path3671" stroke-width="1.65117575"></path>
                    <path d="M9.67534053,0.456175765 L8.58244492,1.39422734 L7.48954932,4.45253246 L8.32529302,5.28778386 L11.7004118,5.28778386 L12.5811571,4.40113238 L13.5197616,1.18220198 L12.7933074,0.456175765 L9.67534053,0.456175765 Z M3.49083715,9.07854022 L3.0729653,10.736193 L5.41304766,10.736193 L0.372870266,25.1217921 L7.5409797,25.1217921 L8.01028193,23.6119146 L6.03664104,23.6119146 L11.025388,9.07854022 L3.49083715,9.07854022 Z M26.3002114,9.1299403 L24.7380135,10.8968183 L22.1407793,10.8968183 L20.4821495,9.18134039 L14.8183787,9.18134039 L14.2976461,10.736193 L16.1684262,10.736193 L11.3339703,24.9675919 L17.3641826,24.9675919 L17.827056,23.6119146 L16.4255781,23.6119146 L19.5949754,13.6467229 L25.5737572,13.6467229 L22.0379185,24.9675919 L27.8559804,24.9675919 L28.376713,23.7211398 L26.9752351,23.7211398 L30.1960628,13.5953228 L35.9112639,13.5953228 L32.3239948,24.9675919 L38.7142197,24.9675919 L39.2349523,23.6119146 L37.6213241,23.6119146 L41.5750347,10.7875931 L40.3792783,9.18134039 L35.8084032,9.18134039 L34.2976357,10.8389932 L31.5461103,10.8389932 L29.9839125,9.1299403 L26.3002114,9.1299403 Z" id="path3665" stroke-width="0.5"></path>
                </g>
            </g>
        </g>
    </g>
</svg>